Model Complications
…
Figure 6: Residual plots can be used for multiple diagnostic purposes

Using broom and augment to get model data

library(broom)
model <- lm(lifeExp~gdpPercap, data=subset(gapminder, year==2007))
augment(model)

# A tibble: 142 × 8
   lifeExp gdpPercap .fitted  .resid    .hat .sigma   .cooksd .std.resid
     <dbl>     <dbl>   <dbl>   <dbl>   <dbl>  <dbl>     <dbl>      <dbl>
 1    43.8      975.    60.2 -16.4   0.0120    8.82 0.0207       -1.85  
 2    76.4     5937.    63.3  13.1   0.00846   8.86 0.00928       1.48  
 3    72.3     6223.    63.5   8.77  0.00832   8.90 0.00411       0.990 
 4    42.7     4797.    62.6 -19.9   0.00907   8.77 0.0231       -2.25  
 5    75.3    12779.    67.7   7.61  0.00709   8.91 0.00263       0.858 
 6    81.2    34435.    81.5  -0.271 0.0292    8.93 0.0000144    -0.0309
 7    79.8    36126.    82.6  -2.75  0.0327    8.93 0.00167      -0.315 
 8    75.6    29796.    78.5  -2.91  0.0211    8.93 0.00118      -0.331 
 9    64.1     1391.    60.5   3.61  0.0116    8.93 0.000975      0.408 
10    79.4    33693.    81.0  -1.59  0.0278    8.93 0.000471     -0.181 
# ℹ 132 more rows
…
Students within schools were stratified by grade and sex and then sampled.

Several oversamples were conducted of ethnic groups and genetically related pairs of students, as well as saturated samples from 16 schools.

Post-stratification adjustments were made to sampling weights to account for region of the country.

The Add Health documentation indicates that the REGION variable should be applied as a stratification variable but this variable is not available in the public release data so we will focus on the design effects of weights and clustering.

Sample design variables

addhealth |>
  select(cluster, sweight)

# A tibble: 4,397 × 2
   cluster sweight
     <dbl>   <dbl>
 1     472   3664.
 2     472   4472.
 3     142   3325.
 4     142    271.
 5     145   3940.
 6     145    759.
 7     132   7001.
 8     166    709.
 9     166    711.
10     163   7851.
# ℹ 4,387 more rows
…
